General Interface for Boosted PROPHET Time Series Models — boost_prophet • boostime
…
    Examples

library(dplyr)
library(lubridate)
library(parsnip)
library(rsample)
library(timetk)
library(boostime)

# Data
m750 <- m4_monthly %>% filter(id == "M750")
m750

#> # A tibble: 306 x 3
#>    id    date       value
#>    <fct> <date>     <dbl>
#>  1 M750  1990-01-01  6370
#>  2 M750  1990-02-01  6430
#>  3 M750  1990-03-01  6520
#>  4 M750  1990-04-01  6580
#>  5 M750  1990-05-01  6620
#>  6 M750  1990-06-01  6690
#>  7 M750  1990-07-01  6000
#>  8 M750  1990-08-01  5450
#>  9 M750  1990-09-01  6480
#> 10 M750  1990-10-01  6820
#> # ... with 296 more rows
…
#> [1] 0.00198912
#> 
#> $params$beta
#>             [,1]       [,2]         [,3]        [,4]        [,5]        [,6]
#> [1,] 0.002559444 0.00483319 -0.002933327 -0.00541092 0.003726597 0.003586675
#>              [,7]         [,8]        [,9]       [,10]        [,11]
#> [1,] -0.004069034 -0.002243445 0.002761729 0.001950905 -0.004470172
#>             [,12]       [,13]       [,14]        [,15]     [,16]       [,17]
#> [1,] -0.000273166 0.002534127 -0.00121361 -0.003089078 0.0010835 0.002427937
#>             [,18]         [,19]       [,20]
#> [1,] -0.002130113 -0.0003352578 0.002062305
#> 
#> 
#> $history
#> # A tibble: 244 x 5
#>        y ds                  floor       t y_scaled
#>    <dbl> <dttm>              <dbl>   <dbl>    <dbl>
#>  1  8.76 1990-01-01 00:00:00     0 0          0.943
#>  2  8.77 1990-02-01 00:00:00     0 0.00419    0.944
#>  3  8.78 1990-03-01 00:00:00     0 0.00798    0.945
#>  4  8.79 1990-04-01 00:00:00     0 0.0122     0.946
#>  5  8.80 1990-05-01 00:00:00     0 0.0162     0.947
#>  6  8.81 1990-06-01 00:00:00     0 0.0204     0.948
#>  7  8.70 1990-07-01 00:00:00     0 0.0245     0.937
#>  8  8.60 1990-08-01 00:00:00     0 0.0287     0.926
#>  9  8.78 1990-09-01 00:00:00     0 0.0329     0.945
#> 10  8.83 1990-10-01 00:00:00     0 0.0369     0.950
#> # ... with 234 more rows
…
